// Jest Snapshot v1, https://goo.gl/fbAQLP

exports[`Tokenizer error state tests "mismatched double quote 1`] = `"No matching quote for opening quote at index 0"`;

exports[`Tokenizer error state tests 'mismatched single quote 1`] = `"No matching quote for opening quote at index 0"`;

exports[`Tokenizer error state tests bad date 2017-01 1`] = `"Unrecognized char - at index 13"`;

exports[`Tokenizer error state tests unrecognized : 1`] = `"Unrecognized char : at index 13"`;

exports[`Tokenizer successful state snapshot tests  1`] = `Array []`;

exports[`Tokenizer successful state snapshot tests "strings can use double quotes" 1`] = `
Array [
  Object {
    "index": 0,
    "input": "strings can use double quotes",
    "type": "VAL_STR",
  },
]
`;

exports[`Tokenizer successful state snapshot tests 'strings can use single quotes' 1`] = `
Array [
  Object {
    "index": 0,
    "input": "strings can use single quotes",
    "type": "VAL_STR",
  },
]
`;

exports[`Tokenizer successful state snapshot tests () 1`] = `
Array [
  Object {
    "index": 0,
    "input": "(",
    "type": "BRACK_OPEN",
  },
  Object {
    "index": 1,
    "input": ")",
    "type": "BRACK_CLOSE",
  },
]
`;

exports[`Tokenizer successful state snapshot tests (roundNumber gte 45000 and hostName eq "provium") or winTime lt 2018-02-01T02:34:43-06 1`] = `
Array [
  Object {
    "index": 0,
    "input": "(",
    "type": "BRACK_OPEN",
  },
  Object {
    "index": 1,
    "input": "roundNumber",
    "type": "IDENTIFIER",
  },
  Object {
    "index": 13,
    "input": "gte",
    "type": "OP_COMPARISON",
  },
  Object {
    "index": 17,
    "input": "45000",
    "type": "VAL_NUM",
  },
  Object {
    "index": 23,
    "input": "and",
    "type": "OP_LOGICAL",
  },
  Object {
    "index": 27,
    "input": "hostName",
    "type": "IDENTIFIER",
  },
  Object {
    "index": 36,
    "input": "eq",
    "type": "OP_COMPARISON",
  },
  Object {
    "index": 39,
    "input": "provium",
    "type": "VAL_STR",
  },
  Object {
    "index": 48,
    "input": ")",
    "type": "BRACK_CLOSE",
  },
  Object {
    "index": 50,
    "input": "or",
    "type": "OP_LOGICAL",
  },
  Object {
    "index": 53,
    "input": "winTime",
    "type": "IDENTIFIER",
  },
  Object {
    "index": 61,
    "input": "lt",
    "type": "OP_COMPARISON",
  },
  Object {
    "index": 64,
    "input": "2018-02-01T02:34:43-06",
    "type": "VAL_DATETIME",
  },
]
`;

exports[`Tokenizer successful state snapshot tests ,, , 1`] = `
Array [
  Object {
    "index": 0,
    "input": ",",
    "type": "COMMA",
  },
  Object {
    "index": 1,
    "input": ",",
    "type": "COMMA",
  },
  Object {
    "index": 3,
    "input": ",",
    "type": "COMMA",
  },
]
`;

exports[`Tokenizer successful state snapshot tests [ ] [] ][ 1`] = `
Array [
  Object {
    "index": 0,
    "input": "[",
    "type": "SQ_OPEN",
  },
  Object {
    "index": 2,
    "input": "]",
    "type": "SQ_CLOSE",
  },
  Object {
    "index": 4,
    "input": "[",
    "type": "SQ_OPEN",
  },
  Object {
    "index": 5,
    "input": "]",
    "type": "SQ_CLOSE",
  },
  Object {
    "index": 7,
    "input": "]",
    "type": "SQ_CLOSE",
  },
  Object {
    "index": 8,
    "input": "[",
    "type": "SQ_OPEN",
  },
]
`;

exports[`Tokenizer successful state snapshot tests 0 00339 1000 1`] = `
Array [
  Object {
    "index": 0,
    "input": "0",
    "type": "VAL_NUM",
  },
  Object {
    "index": 2,
    "input": "00339",
    "type": "VAL_NUM",
  },
  Object {
    "index": 8,
    "input": "1000",
    "type": "VAL_NUM",
  },
]
`;

exports[`Tokenizer successful state snapshot tests 2017-01-01 1`] = `
Array [
  Object {
    "index": 0,
    "input": "2017-01-01",
    "type": "VAL_DATETIME",
  },
]
`;

exports[`Tokenizer successful state snapshot tests 2017-01-01T00:00:00+00:00 1`] = `
Array [
  Object {
    "index": 0,
    "input": "2017-01-01T00:00:00+00:00",
    "type": "VAL_DATETIME",
  },
]
`;

exports[`Tokenizer successful state snapshot tests 2017-01-01T00:00:00Z 1`] = `
Array [
  Object {
    "index": 0,
    "input": "2017-01-01T00:00:00Z",
    "type": "VAL_DATETIME",
  },
]
`;

exports[`Tokenizer successful state snapshot tests and or 1`] = `
Array [
  Object {
    "index": 0,
    "input": "and",
    "type": "OP_LOGICAL",
  },
  Object {
    "index": 4,
    "input": "or",
    "type": "OP_LOGICAL",
  },
]
`;

exports[`Tokenizer successful state snapshot tests asc desc 1`] = `
Array [
  Object {
    "index": 0,
    "input": "asc",
    "type": "OP_DIRECTION",
  },
  Object {
    "index": 4,
    "input": "desc",
    "type": "OP_DIRECTION",
  },
]
`;

exports[`Tokenizer successful state snapshot tests eq ne gt gte lt lte 1`] = `
Array [
  Object {
    "index": 0,
    "input": "eq",
    "type": "OP_COMPARISON",
  },
  Object {
    "index": 3,
    "input": "ne",
    "type": "OP_COMPARISON",
  },
  Object {
    "index": 6,
    "input": "gt",
    "type": "OP_COMPARISON",
  },
  Object {
    "index": 9,
    "input": "gte",
    "type": "OP_COMPARISON",
  },
  Object {
    "index": 13,
    "input": "lt",
    "type": "OP_COMPARISON",
  },
  Object {
    "index": 16,
    "input": "lte",
    "type": "OP_COMPARISON",
  },
]
`;

exports[`Tokenizer successful state snapshot tests identifiers _can h4v3 DIFFERENT c_h_a_r_s_ 1`] = `
Array [
  Object {
    "index": 0,
    "input": "identifiers",
    "type": "IDENTIFIER",
  },
  Object {
    "index": 12,
    "input": "_can",
    "type": "IDENTIFIER",
  },
  Object {
    "index": 17,
    "input": "h4v3",
    "type": "IDENTIFIER",
  },
  Object {
    "index": 22,
    "input": "DIFFERENT",
    "type": "IDENTIFIER",
  },
  Object {
    "index": 32,
    "input": "c_h_a_r_s_",
    "type": "IDENTIFIER",
  },
]
`;
